Name of file format: Device#_Date_Experiment.txt

Device: D1
Title: old_calibration
Experiment Completed by: James Nelson and Gurkern Sufi
Date: 7.25.19
Location: MBP
Arduino Code used: 

Number of experiments:

Rcal/Step size: N/A
Frequency sweep: No

--------------------------------------------------------
Experiment #1 (T1,T2,T3,T4,T5)
Chip #:E2
Media: Optimem
Observations:
	T1: Optimem - well 4,2,1 not filled
	T2: Optimem - well 4,2,1 not filled
	T3: Optimem,di (10,4) - well 9bubble over trace,16bubble
	T4:
	T5:
--------------------------------------------------------
Experiment #2
Chip #: E8
Media: dilution2(10,10)
Observation


